{
  "current_page": 1,
  "data": [
      {
          "subscription_id": 10647,
          "subscription_cancelled_on": null,
          "subscription_created_on": "2020-07-29 15:15:22",
          "subscription_updated_on": "2020-07-29 15:15:22",
          "subscription_current_period_start": "2020-07-29 15:15:18",
          "subscription_current_period_end": "2020-08-29 15:15:18",
          "subscription_coffee_price": "1.000",
          "subscription_coffee_num": 1,
          "subscription_is_cancelled": null,
          "subscription_is_cancelled_at_period_end": null,
          "subscription_currency": "USD",
          "subscription_message": null,
          "message_visibility": 1,
          "subscription_duration_type": "month",
          "referer": null,
          "country": null,
          "transaction_id": "sub_HjkUcn*******",
          "payer_email": "ronald.thyu@gmail.org",
          "payer_name": "ronald.thomas"
      }

  ],
  "first_page_url": "https://developers.buymeacoffee.com/api/v1/subscriptions?page=1",
  "from": 1,
  "last_page": 36,
  "last_page_url": "https://developers.buymeacoffee.com/api/v1/subscriptions?page=36",
  "next_page_url": "https://developers.buymeacoffee.com/api/v1/subscriptions?page=2",
  "path": "https://developers.buymeacoffee.com/api/v1/subscriptions",
  "per_page": 5,
  "prev_page_url": null,
  "to": 5,
  "total": 179
}